DATE,DAT.,KERNEL S.,POOL. S.,EPOC.,BATCH S.,IMG S.,OPT.,LOSS FUNCTION,TEST ACCURACY,TEST LOSS,VAL %,T. POS.,F. POS.,F. NEG.,T. NEG.,PREC.,RECALL,ACCURACY,SPEC.,PADD.
2021-05-03 18:09:34.933371,Dataset 1.2,"(5, 5)","(2, 2)",60,50,"(200, 200, 3)",sgd,<tensorflow.python.keras.losses.BinaryCrossentropy object at 0x7fbb7ad2add0>,0.984649121761322,0.056466080248355865,0.2,,,,,,,,,
2021-05-04 08:16:58.125264,Dataset 1.2,"(5, 5)","(2, 2)",60,50,"(200, 200, 3)",sgd,<tensorflow.python.keras.losses.BinaryCrossentropy object at 0x7f2d1ded0bd0>,0.9824561476707458,0.08805882930755615,0.2,,,,,,,,,
2021-05-04 09:51:55.683308,Dataset 1.2,"(5, 5)","(2, 2)",60,50,"(200, 200, 3)",sgd,<tensorflow.python.keras.losses.BinaryCrossentropy object at 0x7fe8eccb5b10>,0.9758771657943726,0.0773518830537796,0.2,,,,,,,,,
2021-05-13 19:29:59.901754,Dataset 1.2,"(5, 5)","(2, 2)",60,50,"(200, 200, 3)",sgd,<tensorflow.python.keras.losses.BinaryCrossentropy object at 0x7f1c5497d290>,0.984649121761322,0.03939705714583397,0.2,217,0,22,217,1.0,0.9079497907949791,0.9517543859649122,1.0,same
2021-05-13 19:33:25.377974,Dataset 1.2,"(5, 5)","(2, 2)",60,50,"(200, 200, 3)",sgd,<tensorflow.python.keras.losses.BinaryCrossentropy object at 0x7f1c54edeb50>,0.9802631735801697,0.04491766169667244,0.2,217,0,31,208,1.0,0.875,0.9320175438596491,1.0,valid
